Spicy Like Curry - To shoot or not to shoot?
…
nba_pbp %>%  
  filter(season <= 2023, 
           athlete_id_1 == 3975 & # Filter for Curry
           shooting_play == TRUE & # And only shooting plays
           !grepl("Free Throw",type_text)) %>% # exclude free throws
  select(game_id,coordinate_x_raw,coordinate_y_raw,scoring_play,
         clock_minutes, athlete_id_2,clock_minutes,clock_seconds,qtr) %>% 
  left_join(player_ids,by=c("athlete_id_2"="athlete_id")) %>% 
  inner_join(game_ids, by=join_by(game_id)) %>% 
  select(-athlete_id_2) %>% 
  rename(oponent_athlete=athlete_display_name) %>% 
  mutate(oponent_athlete = if_else(is.na(oponent_athlete),"no direct oponent",oponent_athlete),
         scoring_play = fct_rev(as_factor(scoring_play))) -> base_steph_pbp

# A tibble: 3,107 × 9
     game_id coordinate_x_raw coordinate_y_raw scoring_play clock_minutes
       <dbl>            <dbl>            <dbl> <fct>                <dbl>
 1 401442535               20                4 FALSE                    8
 2 401442535               36               29 FALSE                    5
 3 401442535               24                6 TRUE                     4
 4 401442535               48                9 TRUE                     0
 5 401442535               30                4 FALSE                    8
 6 401442535               22                9 TRUE                     5
 7 401442535               25               28 TRUE                     4
 8 401442535               26                4 TRUE                     3
 9 401442535               31                7 FALSE                    1
10 401442535               12               23 TRUE                     9
# ℹ 3,097 more rows
# ℹ 4 more variables: clock_seconds <dbl>, qtr <dbl>, oponent_athlete <chr>,
#   opponent_team_name <chr>
…
